%YAML 1.1
%TAG !u! tag:unity3d.com,2011:
--- !u!1045 &1
EditorBuildSettings:
  m_ObjectHideFlags: 0
  serializedVersion: 2
  m_Scenes:
  - enabled: 1
    path: Assets/Scenes/Menu.unity
    guid: 267f0a9eaa756e347ad87ac2e86bc15b
  - enabled: 1
    path: Assets/Scenes/Game.unity
    guid: 9fc0d4010bbf28b4594072e72b8655ab
  - enabled: 1
    path: Assets/Scenes/VictoryMenu.unity
    guid: 7e5bb88930bb83a44a9abc4df8dfac3c
  - enabled: 1
    path: Assets/Scenes/Level2.unity
    guid: fd902ce58c6feaa4e9f5e5293036029f
  - enabled: 1
    path: Assets/Scenes/LoseMenu.unity
    guid: ed6f617afc490be43a1639b6832f2e22
  m_configObjects: {}
